Tagging and Validating Epidemiological Data • linelist
…
# build a linelist
# ----------------
x <- dataset %>%
  tibble() %>%
  make_linelist(
    date_onset = "dt_onset", # date of onset
    date_reporting = "dt_report", # date of reporting
    occupation = "age" # mistake
  )
x
#> 
#> // linelist object
#> # A tibble: 162 × 15
#>    id      age age_class sex   place_infect   reporting_ctry loc_hosp dt_onset  
#>    <chr> <int> <chr>     <fct> <fct>          <fct>          <fct>    <date>    
#>  1 SK_1     68 60-69     M     Middle East    South Korea    Pyeongt… 2015-05-11
#>  2 SK_2     63 60-69     F     Outside Middl… South Korea    Pyeongt… 2015-05-18
#>  3 SK_3     76 70-79     M     Outside Middl… South Korea    Pyeongt… 2015-05-20
#>  4 SK_4     46 40-49     F     Outside Middl… South Korea    Pyeongt… 2015-05-25
#>  5 SK_5     50 50-59     M     Outside Middl… South Korea    365 Yeo… 2015-05-25
#>  6 SK_6     71 70-79     M     Outside Middl… South Korea    Pyeongt… 2015-05-24
#>  7 SK_7     28 20-29     F     Outside Middl… South Korea    Pyeongt… 2015-05-21
#>  8 SK_8     46 40-49     F     Outside Middl… South Korea    Seoul C… 2015-05-26
#>  9 SK_9     56 50-59     M     Outside Middl… South Korea    Pyeongt… NA        
#> 10 SK_10    44 40-49     M     Outside Middl… China          Pyeongt… 2015-05-21
#> # ℹ 152 more rows
#> # ℹ 7 more variables: dt_report <date>, week_report <fct>, dt_start_exp <date>,
#> #   dt_end_exp <date>, dt_diag <date>, outcome <fct>, dt_death <date>
…
## to revert to default behaviour (warning upon error)
lost_tags_action()
#> Lost tags will now issue a warning.

Alternatively, content can be accessed by tags:

x_no_geo %>%
  select(has_tag(c("date_onset", "outcome")))
#> Warning: The following tags have lost their variable:
#>  date_reporting:dt_report, gender:sex
#> 
#> // linelist object
#> # A tibble: 162 × 2
#>    dt_onset   outcome
#>    <date>     <fct>  
#>  1 2015-05-11 Alive  
#>  2 2015-05-18 Alive  
#>  3 2015-05-20 Dead   
#>  4 2015-05-25 Alive  
#>  5 2015-05-25 Alive  
#>  6 2015-05-24 Dead   
#>  7 2015-05-21 Alive  
#>  8 2015-05-26 Alive  
#>  9 NA         Alive  
#> 10 2015-05-21 Alive  
#> # ℹ 152 more rows
#> 
#> // tags: date_onset:dt_onset, outcome:outcome

x_no_geo %>%
  tags_df()
#> # A tibble: 162 × 4
#>    date_onset date_reporting gender outcome
#>    <date>     <date>         <fct>  <fct>  
#>  1 2015-05-11 2015-05-19     M      Alive  
#>  2 2015-05-18 2015-05-20     F      Alive  
#>  3 2015-05-20 2015-05-20     M      Dead   
#>  4 2015-05-25 2015-05-26     F      Alive  
#>  5 2015-05-25 2015-05-27     M      Alive  
#>  6 2015-05-24 2015-05-28     M      Dead   
#>  7 2015-05-21 2015-05-28     F      Alive  
#>  8 2015-05-26 2015-05-29     F      Alive  
#>  9 NA         2015-05-29     M      Alive  
#> 10 2015-05-21 2015-05-29     M      Alive  
#> # ℹ 152 more rows
…
