Subsetting of linelist objects — [.linelist • linelist
…
  x[[2]] <- NULL
  x

  x$age <- NULL
  x
}
#> Warning: The following tags have lost their variable:
#>  id:identifier
#> Warning: The following tags have lost their variable:
#>  date_onset:date_of_prodrome
#> Warning: The following tags have lost their variable:
#>  age:age
#> 
#> // linelist object
#> # A tibble: 188 × 10
#>    infector date_of_rash date_of_death gender family_ID class complications
#>       <int> <date>       <date>        <fct>      <int> <fct> <fct>        
#>  1       45 1861-11-25   NA            f             41 1     yes          
#>  2       45 1861-11-27   NA            f             41 1     yes          
#>  3      172 1861-12-02   NA            f             41 0     yes          
#>  4      180 1861-11-28   NA            m             61 2     yes          
#>  5       45 1861-11-27   NA            f             42 1     yes          
#>  6      180 1861-11-29   NA            m             42 2     yes          
#>  7       42 1861-11-28   NA            m             26 0     yes          
#>  8       45 1861-11-26   NA            m             44 1     yes          
#>  9      182 1861-11-30   NA            m             44 2     yes          
#> 10       45 1861-11-25   NA            f             29 1     yes          
#> # ℹ 178 more rows
#> # ℹ 3 more variables: x_loc <dbl>, y_loc <dbl>, result <chr>
…
