Base Tools for Storing and Handling Case Line Lists — linelist-package • linelist
…
      select(starts_with("date"))
  }
}
#> Warning: The following tags have lost their variable:
#>  id:identifier, gender:gender, age:age
#> Lost tags will now be ignored.
#> Lost tags will now issue a warning.
#> Loading required package: magrittr
#> Warning: The following tags have lost their variable:
#>  id:identifier, date_onset:date_of_prodrome, outcome:result
#> Warning: The following tags have lost their variable:
#>  id:identifier, gender:gender, age:age, outcome:result
#> 
#> // linelist object
#> # A tibble: 188 × 3
#>    date_of_prodrome date_of_rash date_of_death
#>    <date>           <date>       <date>       
#>  1 1861-11-21       1861-11-25   NA           
#>  2 1861-11-23       1861-11-27   NA           
#>  3 1861-11-28       1861-12-02   NA           
#>  4 1861-11-27       1861-11-28   NA           
#>  5 1861-11-22       1861-11-27   NA           
#>  6 1861-11-26       1861-11-29   NA           
#>  7 1861-11-24       1861-11-28   NA           
#>  8 1861-11-21       1861-11-26   NA           
#>  9 1861-11-26       1861-11-30   NA           
#> 10 1861-11-21       1861-11-25   NA           
#> # ℹ 178 more rows
…
